<svg xmlns="http://www.w3.org/2000/svg" width="23" height="22" viewBox="0 0 23 22">
  <g fill="#A5AFB6" fill-rule="evenodd">
    <path d="M19.5 13C18.673 13 18 13.67 18 14.5 18 15.88 16.878 17 15.5 17L7.5 17C6.122 17 5 15.88 5 14.5 5 13.67 4.327 13 3.5 13L0 13 0 19.5C0 20.88 1.122 22 2.5 22L20.5 22C21.878 22 23 20.88 23 19.5L23 13 19.5 13M11.5 13C11.436 13 11.371 12.99 11.309 12.96 11.122 12.88 11 12.7 11 12.5L11 .5C11 .22 11.224 0 11.5 0 11.776 0 12 .22 12 .5L12 11.29 13.147 10.15C13.342 9.95 13.658 9.95 13.854 10.15 14.049 10.34 14.049 10.66 13.854 10.85L11.853 12.85C11.758 12.95 11.63 13 11.5 13"/>
    <path d="M22.412,10.97 L18.807,5.56 C18.156,4.58 17.067,4 15.895,4 L13,4 L13,9.08 C13.159,9.03 13.327,9 13.5,9 C13.9,9 14.277,9.16 14.561,9.44 C15.146,10.02 15.146,10.98 14.561,11.56 L12.561,13.56 C12.277,13.84 11.9,14 11.5,14 C11.167,14 10.853,13.89 10.593,13.69 C10.562,13.66 10.533,13.64 10.504,13.61 C10.483,13.59 10.46,13.58 10.44,13.56 L8.439,11.56 C8.156,11.28 8,10.9 8,10.5 C8,10.1 8.156,9.72 8.439,9.44 C8.723,9.16 9.1,9 9.5,9 C9.674,9 9.841,9.03 10,9.09 L10,4 L7.655,4 C6.137,4 4.732,4.76 3.897,6.02 L0.677,10.91 C0.434,11.25 0.26,11.61 0.147,12 L3.5,12 C4.878,12 6,13.12 6,14.5 C6,15.33 6.673,16 7.5,16 L15.5,16 C16.327,16 17,15.33 17,14.5 C17,13.12 18.122,12 19.5,12 L22.874,12 C22.776,11.64 22.625,11.29 22.412,10.97"/>
    <path d="M11.5,13 C11.372,13 11.244,12.95 11.147,12.85 L9.147,10.85 C8.951,10.66 8.951,10.34 9.147,10.15 C9.342,9.95 9.658,9.95 9.854,10.15 L11.853,12.15 C12.049,12.34 12.049,12.66 11.853,12.85 C11.756,12.95 11.628,13 11.5,13"/>
  </g>
</svg>
