<?xml version="1.0" encoding="UTF-8"?>
<svg width="30px" height="30px" viewBox="0 0 30 30" version="1.1" xmlns="http://www.w3.org/2000/svg" xmlns:xlink="http://www.w3.org/1999/xlink">
    <!-- Generator: Sketch 60 (88103) - https://sketch.com -->
    <title>campaigns</title>
    <desc>Created with Sketch.</desc>
    <g id="Symbols" stroke="none" stroke-width="1" fill="none" fill-rule="evenodd">
        <g id="Side-Nav" transform="translate(-14.000000, -181.000000)" fill="#3DB4AA">
            <g id="side-nav" transform="translate(0.500000, 0.000000)">
                <g id="Campaigns">
                    <g transform="translate(0.000000, 168.000000)">
                        <path d="M40.4672607,31.92 C37.9122607,31.92 33.6972607,29.48 30.2182607,26 C30.0222607,25.81 30.0222607,25.49 30.2182607,25.3 C30.4132607,25.1 30.7292607,25.1 30.9252607,25.3 C34.1792607,28.55 38.1932607,30.92 40.4672607,30.92 C40.7432607,30.92 40.9672607,31.14 40.9672607,31.42 C40.9672607,31.69 40.7432607,31.92 40.4672607,31.92 L40.4672607,31.92 Z M33.8912607,37.52 C33.9842607,37.71 33.9962607,37.92 33.9242607,38.11 C33.8532607,38.31 33.7082607,38.46 33.5352607,38.54 L27.2732607,40.94 C26.9102607,41.1 26.4872607,40.94 26.3012607,40.57 L25.2502607,38.66 L33.0822607,35.45 L33.8912607,37.52 L33.8912607,37.52 Z M37.1792607,19.04 C33.5102607,15.37 29.3402607,13 26.5552607,13 C25.5952607,13 24.8332607,13.28 24.2892607,13.82 C23.5762607,14.54 23.3612607,15.64 23.5652607,16.98 C23.5462607,17 23.5212607,17.03 23.5082607,17.06 L15.3482607,36.88 C14.4582607,36.59 13.9972607,36.87 13.7902607,37.08 C13.0782607,37.82 13.7352607,39.9 15.1162607,41.28 C16.0892607,42.26 17.3062607,43 18.2192607,43 C18.5532607,43 18.8472607,42.9 19.0722607,42.68 C19.2852607,42.46 19.5572607,41.99 19.2662607,41.1 L24.3182607,39.04 L25.4162607,41.04 C25.7222607,41.65 26.3432607,42 26.9812607,42 C27.2062607,42 27.4332607,41.96 27.6492607,41.87 L33.9102607,39.46 C34.3512607,39.27 34.6982607,38.91 34.8632607,38.46 C35.0282607,38.01 35.0002607,37.5 34.8042607,37.12 L34.0072607,35.07 L39.1602607,32.97 C39.2442607,32.93 39.3072607,32.87 39.3582607,32.8 C39.7482607,32.88 40.1202607,32.92 40.4672607,32.92 C41.4112607,32.92 42.1572607,32.65 42.6832607,32.12 C45.0542607,29.75 41.7462607,23.61 37.1792607,19.04 L37.1792607,19.04 Z" id="campaigns"></path>
                    </g>
                </g>
            </g>
        </g>
    </g>
</svg>