<svg xmlns="http://www.w3.org/2000/svg" width="24" height="20" viewBox="0 0 24 20">
  <g fill="#3DB4AA" fill-rule="evenodd">
    <path d="M9,3 L15,3 L15,1.5 C15,1.224 14.776,1 14.5,1 L9.5,1 C9.224,1 9,1.224 9,1.5 L9,3 L9,3 Z M15.5,4 L8.5,4 C8.224,4 8,3.776 8,3.5 L8,1.5 C8,0.673 8.673,0 9.5,0 L14.5,0 C15.327,0 16,0.673 16,1.5 L16,3.5 C16,3.776 15.776,4 15.5,4 L15.5,4 Z"/>
    <path d="M12,5 C13.103,5 14,5.897 14,7 C14,8.103 13.103,9 12,9 C10.897,9 10,8.103 10,7 C10,5.897 10.897,5 12,5 L12,5 Z M0.152,8.943 L8.45,11.108 C10.773,11.714 13.228,11.714 15.549,11.108 L23.848,8.943 C23.899,8.93 23.95,8.933 24,8.935 L24,4.5 C24,3.673 23.327,3 22.5,3 L1.5,3 C0.673,3 0,3.673 0,4.5 L0,8.935 C0.05,8.933 0.101,8.93 0.152,8.943 L0.152,8.943 Z"/>
    <path d="M15.812,12.116 C14.566,12.441 13.283,12.604 12,12.604 C10.717,12.604 9.435,12.442 8.187,12.116 L0,9.98 L0,18.5 C0,19.327 0.673,20 1.5,20 L22.5,20 C23.327,20 24,19.327 24,18.5 L24,9.98 L15.812,12.116"/>
  </g>
</svg>
