<svg xmlns="http://www.w3.org/2000/svg" width="236" height="47" viewBox="0 0 236 47">
  <g fill="none">
    <path fill="#F0D100" d="M167.772001,0.232500002 C164.424001,0.232500002 161.727001,0.232500002 161.680501,0.232500002 C161.634001,0.232500002 161.541001,0.279000002 161.494501,0.279000002 C161.448001,0.279000002 161.355001,0.325500003 161.308501,0.372000003 C161.262001,0.418500003 161.169001,0.465000004 161.122501,0.465000004 C161.076001,0.511500004 160.983001,0.558000004 160.936501,0.604500005 C160.890001,0.651000005 160.797001,0.744000006 160.750501,0.790500006 C160.704001,0.837000006 160.657501,0.930000007 160.657501,0.976500008 C160.657501,1.02300001 159.030001,4.92900004 157.123501,9.67200007 C155.217001,14.4150001 153.217501,19.3440001 152.706001,20.5995002 C152.101501,22.0875002 151.776001,22.9245002 151.729501,23.0175002 C151.683001,23.1105002 151.683001,23.1570002 151.683001,23.3430002 C151.683001,23.5290002 151.683001,23.5755002 151.729501,23.6685002 C151.729501,23.7615002 151.776001,23.8545002 151.822501,23.9475002 C151.869001,24.0405002 151.915501,24.1335002 151.962001,24.1800002 C152.008501,24.2265002 152.055001,24.3195002 152.101501,24.3660002 C152.148001,24.4125002 152.241001,24.5055002 152.287501,24.5055002 C152.334001,24.5520002 152.427001,24.5985002 152.520001,24.6450002 C152.566501,24.6915002 152.659501,24.6915002 152.752501,24.7380002 L152.845501,24.7845002 L156.472501,24.7845002 L160.099501,24.7845002 L160.099501,24.7845002 C160.099501,24.7845002 158.890501,29.2485002 157.402501,34.6890003 C155.914501,40.1295003 154.705501,44.6400003 154.705501,44.7330003 L154.659001,44.8725003 L154.659001,45.0585003 C154.659001,45.2445003 154.659001,45.2910003 154.705501,45.3840003 C154.705501,45.4770003 154.752001,45.5700004 154.798501,45.6165004 C154.845001,45.6630004 154.891501,45.7560004 154.891501,45.8025004 C154.891501,45.8490004 154.984501,45.9420004 155.031001,45.9885004 C155.077501,46.0350004 155.170501,46.1280004 155.217001,46.1280004 C155.263501,46.1280004 155.356501,46.2210004 155.403001,46.2210004 C155.449501,46.2210004 155.542501,46.2675004 155.589001,46.3140004 C155.635501,46.3605004 155.728501,46.3605004 155.821501,46.3605004 C155.868001,46.3605004 156.007501,46.3605004 156.054001,46.3605004 C156.147001,46.3605004 156.240001,46.3605004 156.333001,46.3140004 C156.379501,46.3140004 156.519001,46.2675004 156.565501,46.2210004 C156.612001,46.1745004 156.705001,46.1280004 156.751501,46.0815004 C156.798001,46.0350004 156.891001,45.9885004 156.891001,45.9420004 C156.937501,45.8955004 157.077001,45.7095004 157.263001,45.4770003 C157.449001,45.2445003 162.052501,39.1530003 167.539501,31.8990002 C173.026501,24.6450002 177.537001,18.6465001 177.583501,18.6000001 C177.630001,18.5535001 177.676501,18.4605001 177.723001,18.3675001 C177.769501,18.3210001 177.769501,18.1815001 177.816001,18.1350001 C177.862501,18.0885001 177.862501,17.9955001 177.862501,17.9490001 C177.862501,17.9025001 177.862501,17.7630001 177.862501,17.6700001 C177.862501,17.5305001 177.862501,17.4375001 177.816001,17.3910001 C177.816001,17.3445001 177.769501,17.2515001 177.769501,17.2050001 C177.769501,17.1585001 177.676501,17.0655001 177.676501,17.0190001 C177.630001,16.9725001 177.583501,16.8795001 177.537001,16.8330001 C177.490501,16.7865001 177.444001,16.7400001 177.351001,16.6935001 C177.304501,16.6470001 177.211501,16.6005001 177.165001,16.5540001 C177.118501,16.5075001 177.025501,16.5075001 176.979001,16.4610001 C176.932501,16.4610001 176.839501,16.4145001 176.793001,16.4145001 L176.700001,16.3680001 L171.910501,16.3680001 L167.121001,16.3680001 L170.934001,9.30000007 C173.026501,5.44050004 174.793501,2.18550002 174.793501,2.09250002 C174.840001,1.99950002 174.886501,1.86000001 174.886501,1.81350001 C174.933001,1.72050001 174.933001,1.67400001 174.933001,1.44150001 L174.933001,1.20900001 L174.886501,1.06950001 C174.886501,1.02300001 174.840001,0.883500007 174.793501,0.837000006 C174.747001,0.790500006 174.700501,0.697500005 174.700501,0.651000005 C174.654001,0.604500005 174.607501,0.511500004 174.561001,0.511500004 C174.514501,0.465000004 174.468001,0.418500003 174.375001,0.372000003 C174.328501,0.325500003 174.235501,0.279000002 174.142501,0.232500002 C174.049501,0.186000001 173.956501,0.139500001 173.910001,0.139500001 L173.770501,0.0930000007 L167.772001,0.232500002 Z M167.028001,3.02250002 L171.306001,3.02250002 L171.306001,3.02250002 C171.306001,3.02250002 169.585501,6.23100005 167.446501,10.1835001 C165.307501,14.1360001 163.587001,17.3445001 163.587001,17.3910001 C163.587001,17.4375001 163.540501,17.5305001 163.540501,17.5770001 C163.540501,17.6235001 163.494001,17.7165001 163.494001,17.8095001 C163.494001,17.9025001 163.494001,17.9955001 163.494001,18.0885001 C163.494001,18.1815001 163.540501,18.2745001 163.540501,18.3210001 C163.540501,18.3675001 163.587001,18.4605001 163.587001,18.5070001 C163.587001,18.5535001 163.633501,18.6465001 163.680001,18.6930001 C163.726501,18.7395001 163.773001,18.8325001 163.819501,18.8790001 C163.866001,18.9255001 163.959001,19.0185001 164.005501,19.0650001 C164.052001,19.1115001 164.191501,19.2045001 164.238001,19.2045001 C164.284501,19.2045001 164.424001,19.2975001 164.470501,19.2975001 L164.610001,19.3440001 L169.213501,19.3440001 C171.724501,19.3440001 173.817001,19.3440001 173.817001,19.3440001 C173.817001,19.3440001 171.864001,21.9480002 169.446001,25.1565002 C167.028001,28.3650002 163.773001,32.6895003 162.145501,34.8285003 C160.518001,36.9675003 159.216001,38.6880003 159.216001,38.6880003 L159.216001,38.6880003 C159.216001,38.6880003 160.146001,35.2935003 161.215501,31.2015002 C162.285001,27.1095002 163.215001,23.7150002 163.215001,23.6220002 C163.215001,23.5290002 163.215001,23.4825002 163.215001,23.2965002 C163.215001,23.1570002 163.215001,23.0640002 163.168501,22.9710002 C163.168501,22.9245002 163.122001,22.7850002 163.075501,22.7385002 C163.029001,22.6920002 162.982501,22.5990002 162.982501,22.5525002 C162.936001,22.5060002 162.889501,22.4130002 162.843001,22.4130002 C162.796501,22.4130002 162.750001,22.3200002 162.657001,22.2735002 C162.610501,22.2270002 162.517501,22.1805002 162.424501,22.1340002 C162.378001,22.0875002 162.238501,22.0410002 162.192001,22.0410002 L162.052501,21.9945002 L158.565001,21.9945002 L155.077501,21.9945002 L158.890501,12.5550001 C160.983001,7.34700006 162.703501,3.11550002 162.703501,3.06900002 C162.796501,3.02250002 163.726501,3.02250002 167.028001,3.02250002 L167.028001,3.02250002 Z M174.003001,7.81200006 C173.910001,7.81200006 173.817001,7.81200006 173.770501,7.81200006 C173.724001,7.81200006 173.631001,7.85850006 173.584501,7.85850006 C173.538001,7.85850006 173.445001,7.90500006 173.352001,7.95150006 C173.259001,7.99800006 173.166001,8.04450006 173.119501,8.09100006 C173.073001,8.13750006 172.980001,8.18400006 172.933501,8.23050006 C172.887001,8.27700006 172.840501,8.37000006 172.794001,8.41650006 C172.747501,8.46300007 172.701001,8.55600007 172.701001,8.60250007 C172.701001,8.64900007 172.654501,8.74200007 172.608001,8.83500007 C172.561501,8.92800007 172.561501,8.97450007 172.561501,9.16050007 C172.561501,9.30000007 172.561501,9.39300007 172.561501,9.43950007 C172.561501,9.48600007 172.608001,9.57900007 172.608001,9.62550007 C172.608001,9.67200007 172.654501,9.76500008 172.654501,9.81150008 C172.654501,9.85800008 172.701001,9.95100008 172.747501,9.99750008 C172.794001,10.0440001 172.840501,10.1370001 172.933501,10.1835001 C172.980001,10.2300001 173.119501,10.3230001 173.212501,10.4160001 C173.305501,10.4625001 173.491501,10.6020001 173.584501,10.6950001 C173.677501,10.7880001 173.910001,10.9275001 174.003001,11.0205001 C174.096001,11.1135001 174.328501,11.2530001 174.421501,11.3925001 C174.561001,11.4855001 174.747001,11.6715001 174.840001,11.7645001 C174.933001,11.8575001 175.119001,11.9970001 175.212001,12.1365001 C175.351501,12.2295001 175.584001,12.5085001 175.770001,12.6945001 C175.956001,12.8805001 176.188501,13.1595001 176.281501,13.2525001 C176.374501,13.3455001 176.560501,13.5780001 176.653501,13.6710001 C176.746501,13.8105001 176.886001,13.9965001 176.979001,14.0895001 C177.072001,14.1825001 177.211501,14.4150001 177.304501,14.5080001 C177.397501,14.6475001 177.537001,14.8800001 177.630001,15.0195001 C177.723001,15.1590001 177.862501,15.3915001 177.955501,15.5310001 C178.002001,15.6705001 178.141501,15.8565001 178.188001,15.9495001 C178.234501,16.0890001 178.374001,16.2750001 178.420501,16.3680001 C178.467001,16.4610001 178.606501,16.7400001 178.653001,16.8795001 C178.746001,17.0655001 178.839001,17.2515001 178.885501,17.3445001 C178.932001,17.4375001 178.978501,17.6235001 179.071501,17.7165001 C179.118001,17.8560001 179.211001,18.0885001 179.257501,18.2280001 C179.304001,18.3675001 179.397001,18.6465001 179.443501,18.8325001 C179.490001,19.0185001 179.583001,19.2510001 179.629501,19.4370001 C179.676001,19.6230002 179.769001,19.9020002 179.769001,20.0880002 C179.815501,20.2740002 179.862001,20.5530002 179.908501,20.6925002 C179.955001,20.8785002 180.001501,21.1110002 180.001501,21.2970002 C180.048001,21.4365002 180.048001,21.7155002 180.094501,21.8550002 C180.094501,21.9945002 180.141001,22.2270002 180.141001,22.3200002 C180.141001,22.4130002 180.187501,22.6455002 180.187501,22.7850002 C180.187501,22.9245002 180.234001,23.2500002 180.234001,23.4825002 C180.234001,23.8080002 180.234001,24.0405002 180.234001,24.4125002 C180.234001,24.6450002 180.234001,24.9705002 180.187501,25.1565002 C180.141001,25.3425002 180.141001,25.5285002 180.141001,25.6215002 C180.141001,25.7145002 180.094501,25.9470002 180.094501,26.0865002 C180.094501,26.2260002 180.048001,26.4585002 180.001501,26.5980002 C179.955001,26.7375002 179.955001,26.9700002 179.908501,27.1095002 C179.862001,27.2490002 179.862001,27.4350002 179.815501,27.5280002 C179.815501,27.6210002 179.769001,27.8070002 179.722501,27.9465002 C179.676001,28.0860002 179.629501,28.2720002 179.629501,28.3650002 C179.583001,28.5045002 179.536501,28.6905002 179.490001,28.8300002 C179.443501,28.9695002 179.350501,29.2020002 179.304001,29.3880002 C179.257501,29.5275002 179.164501,29.8065002 179.071501,29.9460002 C179.025001,30.1320002 178.885501,30.3645002 178.839001,30.5040002 C178.792501,30.6435002 178.653001,30.9690002 178.513501,31.1550002 C178.420501,31.3875002 178.281001,31.6665002 178.188001,31.7595002 C178.141501,31.8990002 178.002001,32.0850002 177.909001,32.2710002 C177.816001,32.4570002 177.630001,32.6895003 177.537001,32.8755003 C177.397501,33.0615003 177.258001,33.3405003 177.118501,33.4800003 C177.025501,33.6195003 176.886001,33.8055003 176.793001,33.8985003 C176.700001,33.9915003 176.560501,34.1775003 176.514001,34.2705003 C176.421001,34.3635003 176.281501,34.5960003 176.142001,34.7355003 C176.049001,34.8750003 175.816501,35.1075003 175.677001,35.2935003 C175.537501,35.4330003 175.305001,35.6655003 175.165501,35.8050003 C175.026001,35.9445003 174.886501,36.0840003 174.747001,36.1770003 C174.654001,36.2700003 174.468001,36.4095003 174.375001,36.5025003 C174.282001,36.5955003 174.096001,36.7350003 174.003001,36.8280003 C173.910001,36.9210003 173.724001,37.0140003 173.677501,37.1070003 C173.584501,37.1535003 173.398501,37.2930003 173.259001,37.4325003 C173.119501,37.5720003 172.933501,37.6650003 172.840501,37.7115003 C172.747501,37.7580003 172.608001,37.8510003 172.468501,37.9440003 C172.329001,38.0370003 172.189501,38.1300003 172.050001,38.1765003 C171.910501,38.2230003 171.678001,38.3625003 171.492001,38.4555003 C171.306001,38.5485003 171.027001,38.6880003 170.887501,38.7810003 C170.748001,38.8740003 170.469001,38.9670003 170.329501,39.0135003 C170.190001,39.0600003 169.957501,39.1530003 169.818001,39.1995003 C169.678501,39.2460003 169.492501,39.3390003 169.399501,39.3390003 C169.306501,39.3855003 169.074001,39.4320003 168.934501,39.4785003 C168.795001,39.5250003 168.609001,39.5715003 168.469501,39.6180003 C168.330001,39.6645003 168.144001,39.7110003 168.004501,39.7110003 C167.865001,39.7575003 167.679001,39.8040003 167.539501,39.8040003 C167.400001,39.8505003 167.214001,39.8505003 167.074501,39.8970003 C166.935001,39.8970003 166.702501,39.9435003 166.516501,39.9900003 C166.330501,40.0365003 166.144501,40.0365003 166.005001,40.0365003 C165.865501,40.0365003 165.726001,40.0830003 165.586501,40.0830003 C165.493501,40.0830003 165.307501,40.0830003 165.214501,40.0830003 C165.121501,40.0830003 164.889001,40.0830003 164.656501,40.0830003 C164.331001,40.0830003 164.238001,40.0830003 164.145001,40.1295003 C164.098501,40.1295003 164.005501,40.1760003 163.912501,40.2225003 C163.866001,40.2690003 163.773001,40.3155003 163.680001,40.3620003 C163.633501,40.4085003 163.540501,40.5015003 163.494001,40.5480003 C163.447501,40.5945003 163.354501,40.6875003 163.354501,40.7340003 C163.308001,40.7805003 163.261501,40.8735003 163.215001,40.9200003 C163.168501,40.9665003 163.122001,41.1060003 163.122001,41.1525003 C163.075501,41.2920003 163.075501,41.2920003 163.075501,41.4780003 C163.075501,41.6640003 163.075501,41.7105003 163.122001,41.8035003 C163.122001,41.8965003 163.168501,41.9895003 163.215001,42.0825003 C163.261501,42.1755003 163.308001,42.2685003 163.354501,42.3150003 C163.401001,42.3615003 163.447501,42.4545003 163.494001,42.5010003 C163.540501,42.5475003 163.587001,42.5940003 163.633501,42.6405003 C163.680001,42.6870003 163.773001,42.7335003 163.819501,42.7335003 C163.866001,42.7800003 163.959001,42.7800003 164.005501,42.8265003 C164.052001,42.8265003 164.145001,42.8730003 164.191501,42.8730003 C164.284501,42.8730003 164.377501,42.8730003 164.563501,42.8730003 C164.703001,42.8730003 164.982001,42.8730003 165.121501,42.8730003 C165.261001,42.8730003 165.540001,42.8730003 165.726001,42.8265003 C165.912001,42.7800003 166.144501,42.7800003 166.330501,42.7800003 C166.516501,42.7800003 166.795501,42.7335003 166.935001,42.6870003 C167.074501,42.6870003 167.307001,42.6405003 167.446501,42.5940003 C167.586001,42.5475003 167.818501,42.5475003 167.958001,42.5010003 C168.097501,42.4545003 168.376501,42.4080003 168.516001,42.3615003 C168.655501,42.3150003 168.934501,42.2685003 169.074001,42.2220003 C169.213501,42.1755003 169.446001,42.1290003 169.539001,42.0825003 C169.632001,42.0360003 169.864501,41.9895003 170.004001,41.9430003 C170.143501,41.8965003 170.422501,41.8035003 170.562001,41.7570003 C170.748001,41.7105003 170.980501,41.5710003 171.166501,41.5245003 C171.306001,41.4780003 171.585001,41.3385003 171.771001,41.2455003 C171.957001,41.1525003 172.236001,41.0130003 172.422001,40.9200003 C172.608001,40.8270003 172.887001,40.6875003 172.980001,40.6410003 C173.073001,40.5945003 173.305501,40.4550003 173.445001,40.3620003 C173.584501,40.2690003 173.770501,40.1295003 173.910001,40.0830003 C174.003001,39.9900003 174.282001,39.8505003 174.468001,39.7110003 C174.654001,39.5715003 174.886501,39.4320003 174.979501,39.3390003 C175.072501,39.2460003 175.258501,39.1065003 175.351501,39.0600003 C175.444501,39.0135003 175.584001,38.8740003 175.677001,38.7810003 C175.770001,38.6880003 175.909501,38.5485003 176.049001,38.4555003 C176.188501,38.3625003 176.374501,38.1765003 176.467501,38.0835003 C176.560501,37.9905003 176.793001,37.7580003 176.979001,37.6185003 C177.165001,37.4790003 177.397501,37.2000003 177.583501,37.0140003 C177.769501,36.8280003 177.909001,36.6420003 178.002001,36.5490003 C178.095001,36.4560003 178.234501,36.3165003 178.327501,36.1770003 C178.420501,36.0375003 178.560001,35.8515003 178.699501,35.7120003 C178.792501,35.5725003 178.978501,35.3400003 179.071501,35.2005003 C179.164501,35.0610003 179.304001,34.8285003 179.397001,34.7355003 C179.490001,34.6425003 179.629501,34.4100003 179.676001,34.2705003 C179.722501,34.1310003 179.908501,33.9450003 179.955001,33.8055003 C180.001501,33.7125003 180.141001,33.5265003 180.187501,33.3870003 C180.234001,33.2940003 180.373501,33.0615003 180.420001,32.9220003 C180.513001,32.7825003 180.606001,32.5500003 180.699001,32.3640002 C180.792001,32.2245002 180.885001,31.9455002 180.978001,31.8060002 C181.024501,31.6665002 181.164001,31.4340002 181.210501,31.2945002 C181.257001,31.1550002 181.350001,30.9690002 181.396501,30.8760002 C181.443001,30.7830002 181.536001,30.5505002 181.582501,30.3645002 C181.629001,30.2250002 181.722001,29.9460002 181.768501,29.7600002 C181.815001,29.5740002 181.908001,29.2950002 181.954501,29.1090002 C182.001001,28.9230002 182.047501,28.6905002 182.094001,28.5510002 C182.140501,28.4115002 182.187001,28.1325002 182.233501,27.9465002 C182.280001,27.7605002 182.326501,27.4815002 182.373001,27.2955002 C182.419501,27.1095002 182.466001,26.8770002 182.466001,26.7375002 C182.466001,26.5980002 182.512501,26.3655002 182.559001,26.1795002 C182.559001,25.9935002 182.605501,25.7145002 182.605501,25.5750002 C182.605501,25.4355002 182.652001,25.1565002 182.652001,25.0635002 C182.652001,24.9705002 182.652001,24.6915002 182.698501,24.4590002 C182.698501,24.2265002 182.698501,23.8545002 182.698501,23.5755002 C182.698501,23.2965002 182.698501,22.9710002 182.698501,22.8315002 C182.698501,22.6920002 182.698501,22.4595002 182.652001,22.3200002 C182.652001,22.1805002 182.605501,21.9015002 182.605501,21.7620002 C182.605501,21.5760002 182.559001,21.3435002 182.512501,21.1575002 C182.512501,21.0180002 182.466001,20.7855002 182.419501,20.6925002 C182.419501,20.5995002 182.373001,20.3205002 182.326501,20.1345002 C182.280001,19.9485002 182.233501,19.6230002 182.187001,19.4835001 C182.140501,19.2975001 182.094001,19.0650001 182.047501,18.8790001 C182.001001,18.6930001 181.908001,18.4140001 181.861501,18.2745001 C181.815001,18.0885001 181.722001,17.8560001 181.675501,17.6700001 C181.629001,17.5305001 181.536001,17.2515001 181.443001,17.0655001 C181.396501,16.8795001 181.257001,16.6005001 181.210501,16.4610001 C181.164001,16.3215001 181.024501,16.0425001 180.978001,15.9030001 C180.885001,15.7635001 180.792001,15.4845001 180.699001,15.2985001 C180.606001,15.1125001 180.466501,14.8800001 180.420001,14.7405001 C180.327001,14.6010001 180.234001,14.3685001 180.141001,14.2290001 C180.048001,14.0895001 179.908501,13.8570001 179.862001,13.7175001 C179.769001,13.5780001 179.629501,13.3455001 179.536501,13.2060001 C179.443501,13.0665001 179.304001,12.8340001 179.211001,12.6945001 C179.118001,12.5550001 178.978501,12.3690001 178.885501,12.2760001 C178.792501,12.1830001 178.606501,11.9505001 178.513501,11.8110001 C178.374001,11.6715001 178.234501,11.4855001 178.141501,11.3925001 C178.048501,11.2995001 177.909001,11.1135001 177.769501,10.9740001 C177.630001,10.8345001 177.397501,10.6020001 177.258001,10.4160001 C177.118501,10.2300001 176.886001,10.0440001 176.793001,9.95100008 C176.700001,9.85800008 176.467501,9.67200007 176.374501,9.53250007 C176.235001,9.43950007 176.049001,9.25350007 175.956001,9.16050007 C175.863001,9.06750007 175.677001,8.92800007 175.537501,8.83500007 C175.398001,8.74200007 175.212001,8.60250007 175.119001,8.50950007 C175.026001,8.41650006 174.793501,8.27700006 174.607501,8.13750006 C174.421501,8.04450006 174.282001,7.90500006 174.189001,7.85850006 C174.142501,7.81200006 174.003001,7.81200006 173.956501,7.76550006 C174.189001,7.81200006 174.142501,7.81200006 174.003001,7.81200006 Z M154.101001,9.02100007 C154.008001,9.02100007 153.915001,9.02100007 153.868501,9.02100007 C153.822001,9.02100007 153.729001,9.06750007 153.682501,9.06750007 C153.636001,9.06750007 153.543001,9.11400007 153.450001,9.16050007 C153.357001,9.20700007 153.264001,9.25350007 153.217501,9.30000007 C153.171001,9.34650007 153.031501,9.48600007 152.892001,9.57900007 C152.799001,9.67200007 152.566501,9.85800008 152.473501,9.99750008 C152.334001,10.0905001 152.148001,10.3230001 151.962001,10.5090001 C151.776001,10.6950001 151.590001,10.9275001 151.450501,11.0670001 C151.311001,11.2065001 151.171501,11.3925001 151.078501,11.4855001 C150.985501,11.5785001 150.846001,11.7645001 150.706501,11.9040001 C150.567001,12.0435001 150.381001,12.3225001 150.288001,12.4620001 C150.195001,12.6015001 150.009001,12.8340001 149.916001,12.9735001 C149.823001,13.1130001 149.637001,13.3920001 149.544001,13.5315001 C149.451001,13.7175001 149.265001,13.9500001 149.218501,14.0895001 C149.172001,14.1825001 149.032501,14.4150001 148.986001,14.5080001 C148.939501,14.6475001 148.800001,14.8335001 148.753501,14.9730001 C148.707001,15.1125001 148.567501,15.3915001 148.474501,15.5775001 C148.381501,15.7635001 148.242001,16.0425001 148.195501,16.1820001 C148.149001,16.3215001 148.009501,16.5540001 147.963001,16.7400001 C147.916501,16.8795001 147.777001,17.1585001 147.730501,17.3445001 C147.684001,17.5305001 147.544501,17.8560001 147.498001,18.0885001 C147.451501,18.3210001 147.358501,18.6000001 147.265501,18.7860001 C147.219001,18.9720001 147.126001,19.2510001 147.079501,19.4370001 C147.033001,19.6230002 146.986501,19.9020002 146.940001,19.9950002 C146.893501,20.0880002 146.847001,20.3670002 146.847001,20.5530002 C146.800501,20.7390002 146.754001,20.9715002 146.754001,21.1110002 C146.754001,21.2505002 146.707501,21.4830002 146.707501,21.6225002 C146.707501,21.7620002 146.661001,22.0410002 146.661001,22.1805002 C146.661001,22.3200002 146.614501,22.5990002 146.614501,22.7850002 C146.614501,23.0640002 146.614501,23.2965002 146.614501,23.9940002 C146.614501,24.6915002 146.614501,24.9240002 146.614501,25.2030002 C146.614501,25.3890002 146.661001,25.6680002 146.661001,25.8075002 C146.661001,25.9470002 146.707501,26.2260002 146.707501,26.3655002 C146.707501,26.5050002 146.754001,26.7375002 146.800501,26.9235002 C146.800501,27.0630002 146.847001,27.2955002 146.893501,27.4350002 C146.940001,27.5745002 146.986501,27.8070002 146.986501,27.9930002 C147.033001,28.1325002 147.079501,28.4115002 147.126001,28.5975002 C147.172501,28.7835002 147.219001,29.0625002 147.265501,29.2020002 C147.312001,29.3415002 147.358501,29.6205002 147.451501,29.7600002 C147.544501,29.8995002 147.591001,30.2250002 147.637501,30.4110002 C147.684001,30.5970002 147.777001,30.8760002 147.870001,31.0155002 C147.916501,31.1550002 148.009501,31.3875002 148.056001,31.4805002 C148.102501,31.6200002 148.195501,31.8060002 148.242001,31.9455002 C148.288501,32.0850002 148.428001,32.3640002 148.521001,32.5500003 C148.614001,32.7825003 148.753501,33.0615003 148.846501,33.2010003 C148.939501,33.3405003 149.032501,33.5730003 149.125501,33.7125003 C149.172001,33.8520003 149.311501,34.0380003 149.404501,34.1310003 C149.497501,34.2240003 149.637001,34.4565003 149.730001,34.6425003 C149.823001,34.7820003 149.962501,35.0145003 150.055501,35.1540003 C150.148501,35.2935003 150.288001,35.4795003 150.381001,35.6190003 C150.474001,35.7585003 150.613501,35.9445003 150.706501,36.0840003 C150.799501,36.2235003 150.985501,36.4095003 151.078501,36.5025003 C151.171501,36.6420003 151.311001,36.7815003 151.404001,36.9210003 C151.497001,37.0605003 151.683001,37.2000003 151.776001,37.3395003 C151.869001,37.4790003 152.101501,37.7115003 152.241001,37.8510003 C152.380501,37.9905003 152.566501,38.1765003 152.659501,38.2230003 C152.752501,38.3160003 152.938501,38.4555003 153.078001,38.5950003 C153.217501,38.7345003 153.357001,38.8275003 153.450001,38.8740003 C153.496501,38.9205003 153.589501,38.9670003 153.636001,38.9670003 C153.682501,38.9670003 153.775501,39.0135003 153.822001,39.0135003 C153.868501,39.0135003 153.961501,39.0600003 154.008001,39.0600003 C154.101001,39.0600003 154.194001,39.0600003 154.287001,39.0600003 C154.380001,39.0600003 154.473001,39.0135003 154.519501,39.0135003 C154.566001,39.0135003 154.659001,38.9670003 154.752001,38.9205003 C154.845001,38.8740003 154.891501,38.8275003 154.938001,38.7810003 C154.984501,38.7345003 155.077501,38.6415003 155.124001,38.5950003 C155.170501,38.5485003 155.217001,38.4555003 155.263501,38.4090003 C155.310001,38.3625003 155.356501,38.2695003 155.356501,38.2230003 C155.403001,38.1765003 155.403001,38.0370003 155.449501,37.9905003 C155.496001,37.8975003 155.496001,37.8510003 155.496001,37.6650003 C155.496001,37.4790003 155.496001,37.4325003 155.449501,37.3395003 C155.449501,37.2465003 155.403001,37.1535003 155.356501,37.1070003 C155.310001,37.0605003 155.263501,36.9675003 155.263501,36.9210003 C155.217001,36.8745003 155.170501,36.8280003 155.124001,36.7815003 C155.077501,36.7350003 154.984501,36.6420003 154.845001,36.5490003 C154.752001,36.4560003 154.566001,36.3165003 154.473001,36.2235003 C154.380001,36.1305003 154.240501,35.9910003 154.147501,35.8980003 C154.054501,35.8050003 153.822001,35.5725003 153.682501,35.4330003 C153.543001,35.2935003 153.357001,35.0610003 153.264001,34.9680003 C153.171001,34.8750003 153.031501,34.7355003 152.985001,34.5960003 C152.892001,34.5030003 152.752501,34.3170003 152.659501,34.2240003 C152.566501,34.1310003 152.427001,33.8985003 152.334001,33.8055003 C152.241001,33.7125003 152.101501,33.5265003 152.055001,33.3870003 C152.008501,33.2940003 151.869001,33.1080003 151.776001,32.9685003 C151.683001,32.8290003 151.543501,32.5965003 151.450501,32.4570002 C151.357501,32.3175002 151.264501,32.1315002 151.218001,32.0385002 C151.171501,31.9455002 151.078501,31.7595002 150.985501,31.6200002 C150.892501,31.4805002 150.799501,31.2480002 150.753001,31.1085002 C150.706501,30.9690002 150.613501,30.7365002 150.567001,30.6435002 C150.520501,30.5505002 150.427501,30.3180002 150.381001,30.1320002 C150.334501,29.9925002 150.241501,29.7135002 150.195001,29.5740002 C150.148501,29.3880002 150.055501,29.1555002 150.009001,29.0160002 C149.962501,28.8765002 149.869501,28.5975002 149.823001,28.4580002 C149.776501,28.2720002 149.730001,28.0395002 149.683501,27.9000002 C149.637001,27.7605002 149.590501,27.5280002 149.590501,27.3885002 C149.544001,27.2490002 149.497501,26.9700002 149.497501,26.7840002 C149.451001,26.5980002 149.451001,26.3655002 149.404501,26.2260002 C149.404501,26.0865002 149.358001,25.8075002 149.358001,25.6680002 C149.358001,25.4820002 149.311501,25.2495002 149.311501,25.1100002 C149.311501,24.9705002 149.311501,24.5985002 149.311501,24.1800002 C149.311501,23.7615002 149.311501,23.3895002 149.311501,23.2500002 C149.311501,23.1105002 149.358001,22.8780002 149.358001,22.6920002 C149.358001,22.5060002 149.404501,22.2735002 149.404501,22.1340002 C149.404501,21.9945002 149.451001,21.7620002 149.497501,21.5760002 C149.544001,21.4365002 149.544001,21.2040002 149.590501,21.0645002 C149.590501,20.9250002 149.637001,20.7855002 149.683501,20.6925002 C149.683501,20.5995002 149.730001,20.3670002 149.776501,20.2275002 C149.823001,20.0880002 149.869501,19.8090002 149.916001,19.6695002 C149.962501,19.4835001 150.055501,19.2510001 150.102001,19.0650001 C150.148501,18.8790001 150.241501,18.6465001 150.288001,18.5070001 C150.334501,18.3675001 150.427501,18.1350001 150.474001,18.0420001 C150.520501,17.9490001 150.613501,17.7630001 150.660001,17.6235001 C150.706501,17.5305001 150.846001,17.2515001 150.939001,17.0190001 C151.032001,16.7865001 151.171501,16.5075001 151.264501,16.3680001 C151.311001,16.2285001 151.450501,16.0425001 151.543501,15.8565001 C151.636501,15.7170001 151.776001,15.4845001 151.869001,15.3450001 C151.962001,15.2055001 152.101501,15.0195001 152.148001,14.9265001 C152.194501,14.8335001 152.334001,14.6475001 152.427001,14.5080001 C152.520001,14.4150001 152.659501,14.2290001 152.752501,14.0895001 C152.845501,13.9965001 152.938501,13.8105001 153.031501,13.7640001 C153.078001,13.6710001 153.217501,13.5315001 153.310501,13.4385001 C153.403501,13.3455001 153.543001,13.1595001 153.682501,13.0200001 C153.822001,12.8805001 154.008001,12.6945001 154.101001,12.5550001 C154.194001,12.4155001 154.380001,12.2760001 154.519501,12.1830001 C154.659001,12.0900001 154.798501,11.9505001 154.891501,11.8575001 C154.984501,11.7645001 155.124001,11.6250001 155.170501,11.6250001 C155.217001,11.5785001 155.263501,11.4855001 155.310001,11.4390001 C155.356501,11.3925001 155.403001,11.2530001 155.403001,11.2065001 C155.403001,11.1600001 155.449501,11.0670001 155.449501,10.9740001 C155.449501,10.9275001 155.449501,10.8345001 155.449501,10.6950001 C155.449501,10.5555001 155.449501,10.4625001 155.449501,10.4160001 C155.449501,10.3695001 155.403001,10.2765001 155.403001,10.1835001 C155.403001,10.1370001 155.356501,10.0440001 155.310001,9.95100008 C155.263501,9.85800008 155.217001,9.81150008 155.124001,9.71850007 C155.077501,9.62550007 154.938001,9.57900007 154.891501,9.53250007 C154.845001,9.48600007 154.752001,9.43950007 154.705501,9.43950007 C154.659001,9.39300007 154.519501,9.39300007 154.473001,9.34650007 C154.287001,9.06750007 154.194001,9.02100007 154.101001,9.02100007 L154.101001,9.02100007 Z"/>
    <path fill="#FFF" d="M3.85950003 30.1320002L16.5540001 30.1320002C16.7865001 30.1320002 17.0190001 30.1785002 17.2515001 30.2715002 17.4840001 30.3645002 17.6700001 30.5040002 17.8095001 30.6435002 17.9490001 30.7830002 18.0885001 30.9690002 18.1815001 31.2015002 18.2745001 31.4340002 18.3210001 31.6665002 18.3210001 31.8990002 18.3210001 32.1315002 18.2745001 32.3640002 18.1815001 32.5965003 18.0885001 32.8290003 17.9490001 33.0150003 17.8095001 33.1545003 17.6700001 33.2940003 17.4840001 33.4335003 17.2515001 33.5265003 17.0190001 33.6195003 16.7865001 33.6660003 16.5540001 33.6660003L1.81350001 33.6660003C1.34850001 33.6195003.976500008 33.4335003.697500005 33.1080003.418500003 32.7825003.232500002 32.3640002.232500002 31.8990002L.232500002 8.83500007C.232500002 8.60250007.279000002 8.37000006.372000003 8.13750006.465000004 7.90500006.604500005 7.71900006.744000006 7.57950006.883500007 7.44000006 1.06950001 7.30050006 1.30200001 7.20750006 1.53450001 7.11450005 1.76700001 7.06800005 1.99950002 7.06800005 2.51100002 7.06800005 2.92950002 7.25400006 3.30150003 7.57950006 3.67350003 7.90500006 3.81300003 8.37000006 3.81300003 8.88150007L3.81300003 30.1320002 3.85950003 30.1320002zM29.9460002 33.7125003C29.4810002 33.6660003 29.0625002 33.4800003 28.7370002 33.1545003 28.4115002 32.8290003 28.2720002 32.4105002 28.2720002 31.8990002L28.2720002 8.83500007C28.2720002 8.32350006 28.4580002 7.90500006 28.7835002 7.53300006 29.1090002 7.16100006 29.5740002 7.02150005 30.0855002 7.02150005L45.2445003 7.02150005C45.7560004 7.02150005 46.1745004 7.20750006 46.5000004 7.53300006 46.8255004 7.85850006 47.0115004 8.32350006 47.0115004 8.78850007 47.0115004 9.25350007 46.8255004 9.71850007 46.5000004 10.0905001 46.1745004 10.4625001 45.7560004 10.6020001 45.2445003 10.6020001L31.8990002 10.6020001 31.8990002 18.2280001 42.2220003 18.2280001C42.4545003 18.2280001 42.6870003 18.2745001 42.9195003 18.3675001 43.1520003 18.4605001 43.3380003 18.6000001 43.5240003 18.7860001 43.7100003 18.9720001 43.8030003 19.1580001 43.8960003 19.3440001 43.9890003 19.5765002 44.0355003 19.8090002 44.0355003 20.0415002 44.0355003 20.5530002 43.8495003 20.9715002 43.5240003 21.2970002 43.1985003 21.6225002 42.7335003 21.8085002 42.2220003 21.8085002L31.8990002 21.8085002 31.8990002 30.0855002 45.2910003 30.0855002C45.5235004 30.0855002 45.7560004 30.1320002 45.9885004 30.2250002 46.2210004 30.3180002 46.4070004 30.4575002 46.5465004 30.6435002 46.6860004 30.8295002 46.8255004 31.0155002 46.9185004 31.2015002 47.0115004 31.4340002 47.0580004 31.6665002 47.0580004 31.8990002 47.0580004 32.4105002 46.8720004 32.8290003 46.5465004 33.2010003 46.2210004 33.5265003 45.8025004 33.7125003 45.2910003 33.7125003L29.9460002 33.7125003zM72.9120006 28.0860002L60.0780005 28.0860002 58.1715004 32.6430003C58.0785004 32.8755003 57.9390004 33.0615003 57.7530004 33.2475003 57.5670004 33.4335003 57.3810004 33.5265003 57.1485004 33.6195003 56.9160004 33.7125003 56.6835004 33.7590003 56.4510004 33.7125003 56.2185004 33.7125003 55.9860004 33.6660003 55.7535004 33.5265003 55.2885004 33.3405003 54.9630004 33.0150003 54.8235004 32.5500003 54.6840004 32.0850002 54.7305004 31.6200002 54.9165004 31.1550002L64.8675005 8.09100006C65.1930005 7.34700006 65.7510005 6.97500005 66.4950005 6.97500005 66.8670005 6.97500005 67.1925005 7.06800005 67.4715005 7.25400006 67.7505005 7.44000006 67.9830005 7.71900006 68.1225005 8.04450006L78.1200006 31.1085002C78.3060006 31.5735002 78.3525006 32.0385002 78.2130006 32.5035002 78.0735006 32.9685003 77.7945006 33.2940003 77.3295006 33.4800003 76.8645006 33.6660003 76.3995006 33.7125003 75.9345006 33.5265003 75.4695006 33.3405003 75.1440006 33.0150003 74.9115006 32.5500003L72.9120006 28.0860002zM61.5195005 24.5055002L71.3775005 24.5055002 66.4950005 12.7875001 61.5195005 24.5055002zM87.6990007 8.83500007C87.6990007 8.32350006 87.8850007 7.90500006 88.2105007 7.57950006 88.5360007 7.25400006 89.0010007 7.06800005 89.4660007 7.06800005L96.9525007 7.06800005C98.1615008 7.06800005 99.3705008 7.20750006 100.486501 7.53300006 101.602501 7.85850006 102.718501 8.32350006 103.695001 8.88150007 104.718001 9.48600007 105.601501 10.1835001 106.438501 10.9740001 107.275501 11.8110001 107.973001 12.6945001 108.577501 13.6710001 109.182001 14.6475001 109.647001 15.7170001 109.972501 16.8795001 110.298001 18.0420001 110.484001 19.2045001 110.484001 20.4135002 110.484001 21.6225002 110.298001 22.8315002 109.972501 23.9475002 109.647001 25.0635002 109.182001 26.1330002 108.577501 27.1095002 107.973001 28.0860002 107.275501 28.9695002 106.438501 29.8065002 105.601501 30.5970002 104.718001 31.2945002 103.695001 31.8990002 102.672001 32.4570002 101.602501 32.9220003 100.486501 33.2475003 99.3705008 33.5730003 98.1615008 33.7125003 96.9525007 33.7125003L89.4660007 33.7125003C89.0010007 33.7125003 88.5825007 33.5265003 88.2105007 33.2010003 87.8385007 32.8755003 87.6990007 32.4570002 87.6990007 31.9455002L87.6990007 8.83500007zM91.3260007 10.6485001L91.3260007 30.1320002 97.0455007 30.1320002C98.4405008 30.1320002 99.7425008 29.8530002 100.951501 29.3415002 102.160501 28.8300002 103.183501 28.0860002 104.067001 27.2025002 104.950501 26.3190002 105.648001 25.2960002 106.159501 24.1335002 106.671001 22.9710002 106.903501 21.7620002 106.903501 20.5065002 106.903501 19.2510001 106.671001 18.0420001 106.159501 16.8330001 105.648001 15.6705001 104.950501 14.6010001 104.067001 13.7175001 103.183501 12.7875001 102.160501 12.0900001 100.951501 11.5320001 99.7425008 10.9740001 98.4405008 10.6950001 97.0455007 10.6950001L91.3260007 10.6950001 91.3260007 10.6485001zM116.808001 9.53250007C116.622001 9.06750007 116.622001 8.60250007 116.808001 8.18400006 116.994001 7.76550006 117.319501 7.39350006 117.784501 7.20750006 118.249501 7.02150005 118.668001 7.02150005 119.133001 7.20750006 119.598001 7.39350006 119.923501 7.71900006 120.109501 8.18400006L128.386501 27.5280002 136.617001 8.18400006C136.803001 7.71900006 137.128501 7.44000006 137.593501 7.25400006 138.058501 7.06800005 138.477001 7.06800005 138.988501 7.25400006 139.453501 7.44000006 139.732501 7.76550006 139.965001 8.23050006 140.151001 8.69550007 140.151001 9.11400007 139.965001 9.62550007L130.060501 32.7360003C129.921001 33.1080003 129.642001 33.3870003 129.316501 33.5730003 128.991001 33.7590003 128.619001 33.8520003 128.247001 33.8520003 127.921501 33.8055003 127.642501 33.7125003 127.363501 33.5265003 127.084501 33.3405003 126.898501 33.0615003 126.712501 32.7360003L116.808001 9.53250007zM197.625002 30.1320002L210.319502 30.1320002C210.552002 30.1320002 210.784502 30.1785002 211.017002 30.2715002 211.249502 30.3645002 211.435502 30.5040002 211.575002 30.6435002 211.714502 30.7830002 211.854002 30.9690002 211.947002 31.2015002 212.040002 31.4340002 212.086502 31.6665002 212.086502 31.8990002 212.086502 32.1315002 212.040002 32.3640002 211.947002 32.5965003 211.854002 32.8290003 211.714502 33.0150003 211.575002 33.1545003 211.435502 33.2940003 211.249502 33.4335003 211.017002 33.5265003 210.784502 33.6195003 210.552002 33.6660003 210.319502 33.6660003L195.579002 33.6660003C195.114002 33.6195003 194.742001 33.4335003 194.463001 33.1080003 194.184001 32.7825003 193.998001 32.3640002 193.998001 31.8990002L193.998001 8.83500007C193.998001 8.60250007 194.044501 8.37000006 194.137501 8.13750006 194.230501 7.90500006 194.370001 7.71900006 194.509501 7.57950006 194.649001 7.44000006 194.835001 7.30050006 195.067502 7.20750006 195.300002 7.11450005 195.532502 7.06800005 195.765002 7.06800005 196.276502 7.06800005 196.695002 7.25400006 197.067002 7.57950006 197.439002 7.90500006 197.578502 8.37000006 197.578502 8.88150007L197.578502 30.1320002 197.625002 30.1320002zM226.920002 10.6485001L226.920002 31.9455002C226.920002 32.1780002 226.873502 32.4105002 226.780502 32.6430003 226.687502 32.8755003 226.548002 33.0615003 226.408502 33.2010003 226.222502 33.3405003 226.036502 33.4800003 225.804002 33.5730003 225.571502 33.6660003 225.339002 33.7125003 225.106502 33.7125003 224.595002 33.7125003 224.176502 33.5265003 223.851002 33.2010003 223.525502 32.8755003 223.339502 32.4570002 223.339502 31.9455002L223.339502 10.6485001 216.318002 10.6485001C216.085502 10.6485001 215.853002 10.6020001 215.620502 10.5090001 215.388002 10.4160001 215.202002 10.2765001 215.062502 10.0905001 214.923002 9.90450008 214.783502 9.71850007 214.690502 9.53250007 214.597502 9.30000007 214.551002 9.06750007 214.551002 8.83500007 214.551002 8.32350006 214.737002 7.90500006 215.062502 7.57950006 215.388002 7.25400006 215.853002 7.06800005 216.318002 7.06800005L233.941502 7.06800005C234.453002 7.06800005 234.871502 7.25400006 235.197002 7.57950006 235.522502 7.95150006 235.708502 8.37000006 235.708502 8.88150007 235.708502 9.39300007 235.522502 9.81150008 235.197002 10.1370001 234.871502 10.4625001 234.406502 10.6485001 233.941502 10.6485001L226.920002 10.6485001z"/>
  </g>
</svg>
