<svg xmlns="http://www.w3.org/2000/svg" width="20" height="20" viewBox="0 0 20 20">
  <g fill="none" fill-rule="evenodd">
    <circle cx="10" cy="10" r="10" fill="#3DB4AA"/>
    <text fill="#FFF" font-family="Poppins-ExtraBoldItalic, Poppins" font-size="13" font-style="italic" font-weight="600">
      <tspan x="8" y="15">i</tspan>
    </text>
  </g>
</svg>
