<svg xmlns="http://www.w3.org/2000/svg" width="15" height="14" viewBox="0 0 15 14">
  <g fill="none" fill-rule="evenodd" stroke="#9B9B9B" stroke-linecap="round" stroke-linejoin="round" stroke-width="1.2" transform="translate(1)">
    <g transform="rotate(90 4.271 8.677)">
      <polyline points="6.024 0 8.564 3.076 6.024 5.881"/>
      <polyline points="0 3.081 6.105 3.081 8.155 3.081"/>
    </g>
    <g transform="rotate(-90 4.823 4.771)">
      <polyline points="6.024 0 8.564 3.076 6.024 5.881"/>
      <polyline points="0 3.081 6.105 3.081 8.155 3.081"/>
    </g>
  </g>
</svg>
