<svg xmlns="http://www.w3.org/2000/svg" width="18" height="24" viewBox="0 0 18 24">
  <g fill="#3DB4AA" fill-rule="evenodd">
    <path d="M12,6.398 L12,5.052 C11.412,5.17 11,5.476 11,5.75 C11,5.949 11.192,6.209 12,6.398"/>
    <path d="M15.5,15 L2.5,15 C2.224,15 2,14.776 2,14.5 C2,14.224 2.224,14 2.5,14 L15.5,14 C15.776,14 16,14.224 16,14.5 C16,14.776 15.776,15 15.5,15 L15.5,15 Z M15.5,19 L2.5,19 C2.224,19 2,18.776 2,18.5 C2,18.224 2.224,18 2.5,18 L15.5,18 C15.776,18 16,18.224 16,18.5 C16,18.776 15.776,19 15.5,19 L15.5,19 Z M6,1.707 L6,5.5 C6,5.776 5.776,6 5.5,6 L1.707,6 L6,1.707 L6,1.707 Z M7.5,10 C7.776,10 8,10.224 8,10.5 C8,10.776 7.776,11 7.5,11 L2.5,11 C2.224,11 2,10.776 2,10.5 C2,10.224 2.224,10 2.5,10 L7.5,10 L7.5,10 Z M12,4.034 L12,3.5 C12,3.224 12.224,3 12.5,3 C12.776,3 13,3.224 13,3.5 L13,4.034 C14.09,4.183 14.915,4.815 14.997,5.619 C15.025,5.894 14.825,6.139 14.551,6.167 C14.281,6.189 14.03,5.995 14.003,5.72 C13.975,5.452 13.576,5.167 13,5.055 L13,6.58 C13.789,6.732 15,7.106 15,8.25 C15,9.11 14.155,9.807 13,9.965 L13,10.5 C13,10.776 12.776,11 12.5,11 C12.224,11 12,10.776 12,10.5 L12,9.965 C10.91,9.816 10.085,9.184 10.003,8.38 C9.975,8.105 10.175,7.859 10.449,7.832 C10.72,7.805 10.97,8.003 10.997,8.278 C11.025,8.547 11.424,8.832 12,8.944 L12,7.42 C11.21,7.266 10,6.893 10,5.75 C10,4.889 10.845,4.192 12,4.034 L12,4.034 Z M17.5,0 L6.5,0 C6.478,0 6.458,0.01 6.436,0.013 C6.414,0.016 6.395,0.019 6.374,0.025 C6.289,0.048 6.209,0.084 6.146,0.146 L0.146,6.146 C0.084,6.209 0.048,6.289 0.025,6.374 C0.02,6.395 0.016,6.413 0.013,6.435 C0.01,6.457 0,6.477 0,6.5 L0,23.5 C0,23.776 0.224,24 0.5,24 L17.5,24 C17.776,24 18,23.776 18,23.5 L18,0.5 C18,0.224 17.776,0 17.5,0 L17.5,0 Z"/>
    <path d="M14,8.25 C14,8.05 13.808,7.79 13,7.602 L13,8.947 C13.588,8.829 14,8.524 14,8.25"/>
  </g>
</svg>
